{
  "response": [
    {
      "double_damage_to": [],
      "generation": "generation-i",
      "id": 1,
      "move_list": [
        "pound",
        "double-slap",
        "comet-punch",
        "mega-punch",
        "pay-day",
        "scratch",
        "vise-grip",
        "guillotine",
        "razor-wind",
        "swords-dance",
        "cut",
        "whirlwind",
        "bind",
        "slam",
        "stomp",
        "mega-kick",
        "headbutt",
        "horn-attack",
        "fury-attack",
        "horn-drill",
        "tackle",
        "body-slam",
        "wrap",
        "take-down",
        "thrash",
        "double-edge",
        "tail-whip",
        "leer",
        "growl",
        "roar",
        "sing",
        "supersonic",
        "sonic-boom",
        "disable",
        "hyper-beam",
        "strength",
        "growth",
        "quick-attack",
        "rage",
        "mimic",
        "screech",
        "double-team",
        "recover",
        "harden",
        "minimize",
        "smokescreen",
        "defense-curl",
        "focus-energy",
        "bide",
        "metronome",
        "self-destruct",
        "egg-bomb",
        "swift",
        "skull-bash",
        "spike-cannon",
        "constrict",
        "soft-boiled",
        "glare",
        "barrage",
        "lovely-kiss",
        "transform",
        "dizzy-punch",
        "flash",
        "splash",
        "explosion",
        "fury-swipes",
        "hyper-fang",
        "sharpen",
        "conversion",
        "tri-attack",
        "super-fang",
        "slash",
        "substitute",
        "struggle",
        "sketch",
        "mind-reader",
        "snore",
        "flail",
        "conversion-2",
        "protect",
        "scary-face",
        "belly-drum",
        "foresight",
        "perish-song",
        "lock-on",
        "endure",
        "false-swipe",
        "swagger",
        "milk-drink",
        "mean-look",
        "attract",
        "sleep-talk",
        "heal-bell",
        "return",
        "present",
        "frustration",
        "safeguard",
        "pain-split",
        "baton-pass",
        "encore",
        "rapid-spin",
        "sweet-scent",
        "morning-sun",
        "hidden-power",
        "psych-up",
        "extreme-speed",
        "fake-out",
        "uproar",
        "stockpile",
        "spit-up",
        "swallow",
        "facade",
        "smelling-salts",
        "follow-me",
        "nature-power",
        "helping-hand",
        "wish",
        "assist",
        "recycle",
        "yawn",
        "endeavor",
        "refresh",
        "secret-power",
        "camouflage",
        "teeter-dance",
        "slack-off",
        "hyper-voice",
        "crush-claw",
        "weather-ball",
        "odor-sleuth",
        "tickle",
        "block",
        "howl",
        "covet",
        "natural-gift",
        "feint",
        "acupressure",
        "trump-card",
        "wring-out",
        "lucky-chant",
        "me-first",
        "copycat",
        "last-resort",
        "giga-impact",
        "rock-climb",
        "captivate",
        "judgment",
        "double-hit",
        "crush-grip",
        "simple-beam",
        "entrainment",
        "after-you",
        "round",
        "echoed-voice",
        "chip-away",
        "shell-smash",
        "reflect-type",
        "retaliate",
        "bestow",
        "work-up",
        "tail-slap",
        "head-charge",
        "techno-blast",
        "relic-song",
        "noble-roar",
        "boomburst",
        "play-nice",
        "confide",
        "happy-hour",
        "celebrate",
        "hold-hands",
        "hold-back",
        "breakneck-blitz--physical",
        "breakneck-blitz--special",
        "spotlight",
        "laser-focus",
        "revelation-dance",
        "pulverizing-pancake",
        "extreme-evoboost",
        "tearful-look",
        "multi-attack",
        "veevee-volley",
        "max-guard",
        "stuff-cheeks",
        "teatime",
        "court-change",
        "max-strike",
        "terrain-pulse"
      ],
      "moves_count": 188,
      "name": "normal",
      "no_damage_to": [
        "ghost"
      ],
      "pokemon_count": 130,
      "pokemon_list": [
        "bulbasaur",
        "pidgey",
        "pidgeotto",
        "pidgeot",
        "rattata",
        "raticate",
        "spearow",
        "fearow",
        "jigglypuff",
        "wigglytuff",
        "meowth",
        "persian",
        "farfetchd",
        "doduo",
        "dodrio",
        "lickitung",
        "chansey",
        "kangaskhan",
        "tauros",
        "ditto",
        "eevee",
        "porygon",
        "snorlax",
        "sentret",
        "furret",
        "hoothoot",
        "noctowl",
        "igglybuff",
        "aipom",
        "girafarig",
        "dunsparce",
        "teddiursa",
        "ursaring",
        "porygon2",
        "stantler",
        "smeargle",
        "miltank",
        "blissey",
        "zigzagoon",
        "linoone",
        "taillow",
        "swellow",
        "slakoth",
        "vigoroth",
        "slaking",
        "whismur",
        "loudred",
        "exploud",
        "azurill",
        "skitty",
        "delcatty",
        "spinda",
        "swablu",
        "zangoose",
        "castform",
        "kecleon",
        "starly",
        "staravia",
        "staraptor",
        "bidoof",
        "bibarel",
        "ambipom",
        "buneary",
        "lopunny",
        "glameow",
        "purugly",
        "happiny",
        "chatot",
        "munchlax",
        "lickilicky",
        "porygon-z",
        "regigigas",
        "arceus",
        "patrat",
        "watchog",
        "lillipup",
        "herdier",
        "stoutland",
        "pidove",
        "tranquill",
        "unfezant",
        "audino",
        "minccino",
        "cinccino",
        "deerling",
        "sawsbuck",
        "bouffalant",
        "rufflet",
        "braviary",
        "meloetta-aria",
        "bunnelby",
        "diggersby",
        "fletchling",
        "litleo",
        "pyroar",
        "furfrou",
        "helioptile",
        "heliolisk",
        "pikipek",
        "trumbeak",
        "toucannon",
        "yungoos",
        "gumshoos",
        "stufful",
        "bewear",
        "oranguru",
        "type-null",
        "silvally",
        "komala",
        "drampa",
        "skwovet",
        "greedent",
        "wooloo",
        "dubwool",
        "obstagoon",
        "indeedee-male",
        "meloetta-pirouette",
        "kangaskhan-mega",
        "audino-mega",
        "pidgeot-mega",
        "lopunny-mega",
        "rattata-alola",
        "raticate-alola",
        "raticate-totem-alola",
        "gumshoos-totem",
        "zigzagoon-galar",
        "linoone-galar",
        "indeedee-female",
        "meowth-gmax",
        "eevee-gmax",
        "snorlax-gmax"
      ]
    },
    {
      "double_damage_to": [
        "normal",
        "rock",
        "steel",
        "ice",
        "dark"
      ],
      "generation": "generation-i",
      "id": 2,
      "move_list": [
        "karate-chop",
        "double-kick",
        "jump-kick",
        "rolling-kick",
        "submission",
        "low-kick",
        "counter",
        "seismic-toss",
        "high-jump-kick",
        "triple-kick",
        "reversal",
        "mach-punch",
        "detect",
        "dynamic-punch",
        "vital-throw",
        "cross-chop",
        "rock-smash",
        "focus-punch",
        "superpower",
        "revenge",
        "brick-break",
        "arm-thrust",
        "sky-uppercut",
        "bulk-up",
        "wake-up-slap",
        "hammer-arm",
        "close-combat",
        "force-palm",
        "aura-sphere",
        "drain-punch",
        "vacuum-wave",
        "focus-blast",
        "storm-throw",
        "low-sweep",
        "quick-guard",
        "circle-throw",
        "final-gambit",
        "sacred-sword",
        "secret-sword",
        "flying-press",
        "mat-block",
        "power-up-punch",
        "all-out-pummeling--physical",
        "all-out-pummeling--special",
        "no-retreat",
        "octolock",
        "max-knuckle",
        "body-press",
        "meteor-assault",
        "coaching",
        "thunderous-kick"
      ],
      "moves_count": 51,
      "name": "fighting",
      "no_damage_to": [
        "ghost"
      ],
      "pokemon_count": 78,
      "pokemon_list": [
        "ivysaur",
        "mankey",
        "primeape",
        "poliwrath",
        "machop",
        "machoke",
        "machamp",
        "hitmonlee",
        "hitmonchan",
        "heracross",
        "tyrogue",
        "hitmontop",
        "combusken",
        "blaziken",
        "breloom",
        "makuhita",
        "hariyama",
        "meditite",
        "medicham",
        "monferno",
        "infernape",
        "riolu",
        "lucario",
        "croagunk",
        "toxicroak",
        "gallade",
        "pignite",
        "emboar",
        "timburr",
        "gurdurr",
        "conkeldurr",
        "throh",
        "sawk",
        "scraggy",
        "scrafty",
        "mienfoo",
        "mienshao",
        "cobalion",
        "terrakion",
        "virizion",
        "keldeo-ordinary",
        "chesnaught",
        "pancham",
        "pangoro",
        "hawlucha",
        "crabrawler",
        "crabominable",
        "stufful",
        "bewear",
        "passimian",
        "hakamo-o",
        "kommo-o",
        "buzzwole",
        "pheromosa",
        "marshadow",
        "clobbopus",
        "grapploct",
        "sirfetchd",
        "falinks",
        "zamazenta-hero",
        "kubfu",
        "urshifu-single-strike",
        "meloetta-pirouette",
        "keldeo-resolute",
        "mewtwo-mega-x",
        "heracross-mega",
        "blaziken-mega",
        "medicham-mega",
        "lucario-mega",
        "gallade-mega",
        "lopunny-mega",
        "kommo-o-totem",
        "farfetchd-galar",
        "zapdos-galar",
        "zamazenta-crowned",
        "urshifu-rapid-strike",
        "machamp-gmax",
        "urshifu-single-strike-gmax",
        "urshifu-rapid-strike-gmax"
      ]
    },
    {
      "double_damage_to": [
        "fighting",
        "bug",
        "grass"
      ],
      "generation": "generation-i",
      "id": 3,
      "move_list": [
        "double-slap",
        "gust",
        "wing-attack",
        "fly",
        "peck",
        "drill-peck",
        "mirror-move",
        "sky-attack",
        "aeroblast",
        "feather-dance",
        "air-cutter",
        "aerial-ace",
        "bounce",
        "roost",
        "pluck",
        "tailwind",
        "air-slash",
        "brave-bird",
        "defog",
        "chatter",
        "sky-drop",
        "acrobatics",
        "hurricane",
        "oblivion-wing",
        "dragon-ascent",
        "supersonic-skystrike--physical",
        "supersonic-skystrike--special",
        "beak-blast",
        "floaty-fall",
        "max-airstream",
        "dual-wingbeat"
      ],
      "moves_count": 30,
      "name": "flying",
      "no_damage_to": [],
      "pokemon_count": 135,
      "pokemon_list": [
        "venusaur",
        "charizard",
        "butterfree",
        "pidgey",
        "pidgeotto",
        "pidgeot",
        "spearow",
        "fearow",
        "zubat",
        "golbat",
        "farfetchd",
        "doduo",
        "dodrio",
        "scyther",
        "gyarados",
        "aerodactyl",
        "articuno",
        "zapdos",
        "moltres",
        "dragonite",
        "hoothoot",
        "noctowl",
        "ledyba",
        "ledian",
        "crobat",
        "togetic",
        "natu",
        "xatu",
        "hoppip",
        "skiploom",
        "jumpluff",
        "yanma",
        "murkrow",
        "gligar",
        "delibird",
        "mantine",
        "skarmory",
        "lugia",
        "ho-oh",
        "beautifly",
        "taillow",
        "swellow",
        "wingull",
        "pelipper",
        "masquerain",
        "ninjask",
        "swablu",
        "altaria",
        "tropius",
        "salamence",
        "rayquaza",
        "starly",
        "staravia",
        "staraptor",
        "mothim",
        "combee",
        "vespiquen",
        "drifloon",
        "drifblim",
        "honchkrow",
        "chatot",
        "mantyke",
        "togekiss",
        "yanmega",
        "gliscor",
        "pidove",
        "tranquill",
        "unfezant",
        "woobat",
        "swoobat",
        "sigilyph",
        "archen",
        "archeops",
        "ducklett",
        "swanna",
        "emolga",
        "rufflet",
        "braviary",
        "vullaby",
        "mandibuzz",
        "tornadus-incarnate",
        "thundurus-incarnate",
        "landorus-incarnate",
        "fletchling",
        "fletchinder",
        "talonflame",
        "vivillon",
        "hawlucha",
        "noibat",
        "noivern",
        "yveltal",
        "rowlet",
        "dartrix",
        "pikipek",
        "trumbeak",
        "toucannon",
        "oricorio-baile",
        "minior-red-meteor",
        "celesteela",
        "rookidee",
        "corvisquire",
        "corviknight",
        "cramorant",
        "shaymin-sky",
        "rotom-fan",
        "tornadus-therian",
        "thundurus-therian",
        "landorus-therian",
        "charizard-mega-y",
        "pinsir-mega",
        "aerodactyl-mega",
        "pidgeot-mega",
        "rayquaza-mega",
        "salamence-mega",
        "oricorio-pom-pom",
        "oricorio-pau",
        "oricorio-sensu",
        "minior-orange-meteor",
        "minior-yellow-meteor",
        "minior-green-meteor",
        "minior-blue-meteor",
        "minior-indigo-meteor",
        "minior-violet-meteor",
        "minior-red",
        "minior-orange",
        "minior-yellow",
        "minior-green",
        "minior-blue",
        "minior-indigo",
        "minior-violet",
        "articuno-galar",
        "zapdos-galar",
        "moltres-galar",
        "charizard-gmax",
        "butterfree-gmax",
        "corviknight-gmax"
      ]
    }
  ],
  "size": 3
}